{
  "external_urls": {
    "spotify": "https://open.spotify.com/artist/2Mp409M6EpFr3kGdQ1mwjS"
  },
  "followers": {
    "href": null,
    "total": 52982
  },
  "genres": [
    "swedish idol pop",
    "swedish pop"
  ],
  "href": "https://api.spotify.com/v1/artists/2Mp409M6EpFr3kGdQ1mwjS",
  "id": "2Mp409M6EpFr3kGdQ1mwjS",
  "images": [
    {
      "height": 640,
      "url": "https://i.scdn.co/image/2473cce25d322c38430e0566f409d26a91b81ce0",
      "width": 640
    },
    {
      "height": 320,
      "url": "https://i.scdn.co/image/6fa31a4273115e563bcb4d829a5baed655780374",
      "width": 320
    },
    {
      "height": 160,
      "url": "https://i.scdn.co/image/bdd0f5654f23c76a71c0ad540fdd32411996189f",
      "width": 160
    }
  ],
  "name": "Sabina Ddumba",
  "popularity": 57,
  "type": "artist",
  "uri": "spotify:artist:2Mp409M6EpFr3kGdQ1mwjS"
}