{
  "albums" : {
    "href" : "https://api.spotify.com/v1/browse/new-releases?country=SE&offset=0&limit=20",
    "items" : [ {
      "album_type" : "single",
      "artists" : [ {
        "external_urls" : {
          "spotify" : "https://open.spotify.com/artist/2Mp409M6EpFr3kGdQ1mwjS"
        },
        "href" : "https://api.spotify.com/v1/artists/2Mp409M6EpFr3kGdQ1mwjS",
        "id" : "2Mp409M6EpFr3kGdQ1mwjS",
        "name" : "Sabina Ddumba",
        "type" : "artist",
        "uri" : "spotify:artist:2Mp409M6EpFr3kGdQ1mwjS"
      } ],
      "available_markets" : [ "AD", "AE", "AL", "AR", "AT", "AU", "BA", "BE", "BG", "BH", "BO", "BR", "BY", "CA", "CH", "CL", "CO", "CR", "CY", "CZ", "DE", "DK", "DO", "DZ", "EC", "EE", "EG", "ES", "FI", "FR", "GB", "GR", "GT", "HK", "HN", "HR", "HU", "ID", "IE", "IL", "IN", "IS", "IT", "JO", "JP", "KR", "KW", "KZ", "LB", "LI", "LT", "LU", "LV", "MA", "MC", "MD", "ME", "MK", "MT", "MX", "MY", "NI", "NL", "NO", "NZ", "OM", "PA", "PE", "PH", "PL", "PS", "PT", "PY", "QA", "RO", "RS", "RU", "SA", "SE", "SG", "SI", "SK", "SV", "TH", "TN", "TR", "TW", "UA", "US", "UY", "VN", "XK", "ZA" ],
      "external_urls" : {
        "spotify" : "https://open.spotify.com/album/2hTagJlQpQUGVAgfDmi5ma"
      },
      "href" : "https://api.spotify.com/v1/albums/2hTagJlQpQUGVAgfDmi5ma",
      "id" : "2hTagJlQpQUGVAgfDmi5ma",
      "images" : [ {
        "height" : 640,
        "url" : "https://i.scdn.co/image/ab67616d0000b273c7e70e6b32dd58d386bf4c9b",
        "width" : 640
      }, {
        "height" : 300,
        "url" : "https://i.scdn.co/image/ab67616d00001e02c7e70e6b32dd58d386bf4c9b",
        "width" : 300
      }, {
        "height" : 64,
        "url" : "https://i.scdn.co/image/ab67616d00004851c7e70e6b32dd58d386bf4c9b",
        "width" : 64
      } ],
      "name" : "Damn Good Woman",
      "release_date" : "2021-02-12",
      "release_date_precision" : "day",
      "total_tracks" : 1,
      "type" : "album",
      "uri" : "spotify:album:2hTagJlQpQUGVAgfDmi5ma"
    }, {
      "album_type" : "single",
      "artists" : [ {
        "external_urls" : {
          "spotify" : "https://open.spotify.com/artist/6Xln2zf2OkGDhFKUQcw1yB"
        },
        "href" : "https://api.spotify.com/v1/artists/6Xln2zf2OkGDhFKUQcw1yB",
        "id" : "6Xln2zf2OkGDhFKUQcw1yB",
        "name" : "JB",
        "type" : "artist",
        "uri" : "spotify:artist:6Xln2zf2OkGDhFKUQcw1yB"
      } ],
      "available_markets" : [ "AD", "AE", "AL", "AR", "AT", "AU", "BA", "BE", "BG", "BH", "BO", "BR", "BY", "CA", "CH", "CL", "CO", "CR", "CY", "CZ", "DE", "DK", "DO", "DZ", "EC", "EE", "EG", "ES", "FI", "FR", "GB", "GR", "GT", "HK", "HN", "HR", "HU", "ID", "IE", "IL", "IN", "IS", "IT", "JO", "JP", "KR", "KW", "KZ", "LB", "LI", "LT", "LU", "LV", "MA", "MC", "MD", "ME", "MK", "MT", "MX", "MY", "NI", "NL", "NO", "NZ", "OM", "PA", "PE", "PH", "PL", "PS", "PT", "PY", "QA", "RO", "RS", "RU", "SA", "SE", "SG", "SI", "SK", "SV", "TH", "TN", "TR", "TW", "UA", "US", "UY", "VN", "XK", "ZA" ],
      "external_urls" : {
        "spotify" : "https://open.spotify.com/album/142YJfFOkpbdidEAQebvYk"
      },
      "href" : "https://api.spotify.com/v1/albums/142YJfFOkpbdidEAQebvYk",
      "id" : "142YJfFOkpbdidEAQebvYk",
      "images" : [ {
        "height" : 640,
        "url" : "https://i.scdn.co/image/ab67616d0000b2731d63d3fb6fb6e405dcd7ded4",
        "width" : 640
      }, {
        "height" : 300,
        "url" : "https://i.scdn.co/image/ab67616d00001e021d63d3fb6fb6e405dcd7ded4",
        "width" : 300
      }, {
        "height" : 64,
        "url" : "https://i.scdn.co/image/ab67616d000048511d63d3fb6fb6e405dcd7ded4",
        "width" : 64
      } ],
      "name" : "TRILOGIN",
      "release_date" : "2021-02-10",
      "release_date_precision" : "day",
      "total_tracks" : 3,
      "type" : "album",
      "uri" : "spotify:album:142YJfFOkpbdidEAQebvYk"
    }, {
      "album_type" : "single",
      "artists" : [ {
        "external_urls" : {
          "spotify" : "https://open.spotify.com/artist/1W7FNibLa0O0b572tB2w7t"
        },
        "href" : "https://api.spotify.com/v1/artists/1W7FNibLa0O0b572tB2w7t",
        "id" : "1W7FNibLa0O0b572tB2w7t",
        "name" : "Pink Sweat$",
        "type" : "artist",
        "uri" : "spotify:artist:1W7FNibLa0O0b572tB2w7t"
      } ],
      "available_markets" : [ "AD", "AE", "AL", "AR", "AT", "AU", "BA", "BE", "BG", "BH", "BO", "BR", "BY", "CA", "CH", "CL", "CO", "CR", "CY", "CZ", "DE", "DK", "DO", "DZ", "EC", "EE", "EG", "ES", "FI", "FR", "GB", "GR", "GT", "HK", "HN", "HR", "HU", "ID", "IE", "IL", "IN", "IS", "IT", "JO", "JP", "KR", "KW", "KZ", "LB", "LI", "LT", "LU", "LV", "MA", "MC", "MD", "ME", "MK", "MT", "MX", "MY", "NI", "NL", "NO", "NZ", "OM", "PA", "PE", "PH", "PL", "PS", "PT", "PY", "QA", "RO", "RS", "RU", "SA", "SE", "SG", "SI", "SK", "SV", "TH", "TN", "TR", "TW", "UA", "US", "UY", "VN", "XK", "ZA" ],
      "external_urls" : {
        "spotify" : "https://open.spotify.com/album/7zvlOXQgusNzrFMADWbz8G"
      },
      "href" : "https://api.spotify.com/v1/albums/7zvlOXQgusNzrFMADWbz8G",
      "id" : "7zvlOXQgusNzrFMADWbz8G",
      "images" : [ {
        "height" : 640,
        "url" : "https://i.scdn.co/image/ab67616d0000b273b509fc4a2327b999b9d336ef",
        "width" : 640
      }, {
        "height" : 300,
        "url" : "https://i.scdn.co/image/ab67616d00001e02b509fc4a2327b999b9d336ef",
        "width" : 300
      }, {
        "height" : 64,
        "url" : "https://i.scdn.co/image/ab67616d00004851b509fc4a2327b999b9d336ef",
        "width" : 64
      } ],
      "name" : "Heaven",
      "release_date" : "2021-02-08",
      "release_date_precision" : "day",
      "total_tracks" : 1,
      "type" : "album",
      "uri" : "spotify:album:7zvlOXQgusNzrFMADWbz8G"
    }, {
      "album_type" : "single",
      "artists" : [ {
        "external_urls" : {
          "spotify" : "https://open.spotify.com/artist/2SXhbucehn00OBVKhzxDyM"
        },
        "href" : "https://api.spotify.com/v1/artists/2SXhbucehn00OBVKhzxDyM",
        "id" : "2SXhbucehn00OBVKhzxDyM",
        "name" : "Erica Banks",
        "type" : "artist",
        "uri" : "spotify:artist:2SXhbucehn00OBVKhzxDyM"
      } ],
      "available_markets" : [ "AD", "AE", "AL", "AR", "AT", "AU", "BA", "BE", "BG", "BH", "BO", "BR", "BY", "CA", "CH", "CL", "CO", "CR", "CY", "CZ", "DE", "DK", "DO", "DZ", "EC", "EE", "EG", "ES", "FI", "FR", "GB", "GR", "GT", "HK", "HN", "HR", "HU", "ID", "IE", "IL", "IN", "IS", "IT", "JO", "JP", "KR", "KW", "KZ", "LB", "LI", "LT", "LU", "LV", "MA", "MC", "MD", "ME", "MK", "MT", "MX", "MY", "NI", "NL", "NO", "NZ", "OM", "PA", "PE", "PH", "PL", "PS", "PT", "PY", "QA", "RO", "RS", "RU", "SA", "SE", "SG", "SI", "SK", "SV", "TH", "TN", "TR", "TW", "UA", "US", "UY", "VN", "XK", "ZA" ],
      "external_urls" : {
        "spotify" : "https://open.spotify.com/album/5UmygQJtxCI19iqzkizz0J"
      },
      "href" : "https://api.spotify.com/v1/albums/5UmygQJtxCI19iqzkizz0J",
      "id" : "5UmygQJtxCI19iqzkizz0J",
      "images" : [ {
        "height" : 640,
        "url" : "https://i.scdn.co/image/ab67616d0000b273504de199f4955eb73d354a54",
        "width" : 640
      }, {
        "height" : 300,
        "url" : "https://i.scdn.co/image/ab67616d00001e02504de199f4955eb73d354a54",
        "width" : 300
      }, {
        "height" : 64,
        "url" : "https://i.scdn.co/image/ab67616d00004851504de199f4955eb73d354a54",
        "width" : 64
      } ],
      "name" : "Buss It (feat. Travis Scott)",
      "release_date" : "2021-02-11",
      "release_date_precision" : "day",
      "total_tracks" : 1,
      "type" : "album",
      "uri" : "spotify:album:5UmygQJtxCI19iqzkizz0J"
    }, {
      "album_type" : "album",
      "artists" : [ {
        "external_urls" : {
          "spotify" : "https://open.spotify.com/artist/087cmrx63FD1wMFuYBN9gt"
        },
        "href" : "https://api.spotify.com/v1/artists/087cmrx63FD1wMFuYBN9gt",
        "id" : "087cmrx63FD1wMFuYBN9gt",
        "name" : "Mona Masrour",
        "type" : "artist",
        "uri" : "spotify:artist:087cmrx63FD1wMFuYBN9gt"
      } ],
      "available_markets" : [ "AD", "AE", "AL", "AR", "AT", "AU", "BA", "BE", "BG", "BH", "BO", "BR", "BY", "CA", "CH", "CL", "CO", "CR", "CY", "CZ", "DE", "DK", "DO", "DZ", "EC", "EE", "EG", "ES", "FI", "FR", "GB", "GR", "GT", "HK", "HN", "HR", "HU", "ID", "IE", "IL", "IN", "IS", "IT", "JO", "JP", "KR", "KW", "KZ", "LB", "LI", "LT", "LU", "LV", "MA", "MC", "MD", "ME", "MK", "MT", "MX", "MY", "NI", "NL", "NO", "NZ", "OM", "PA", "PE", "PH", "PL", "PS", "PT", "PY", "QA", "RO", "RS", "RU", "SA", "SE", "SG", "SI", "SK", "SV", "TH", "TN", "TR", "TW", "UA", "US", "UY", "VN", "XK", "ZA" ],
      "external_urls" : {
        "spotify" : "https://open.spotify.com/album/3TxfeL4iBnFnzvYQP0O9mH"
      },
      "href" : "https://api.spotify.com/v1/albums/3TxfeL4iBnFnzvYQP0O9mH",
      "id" : "3TxfeL4iBnFnzvYQP0O9mH",
      "images" : [ {
        "height" : 640,
        "url" : "https://i.scdn.co/image/ab67616d0000b27386e4243f74d25a88fc5840f9",
        "width" : 640
      }, {
        "height" : 300,
        "url" : "https://i.scdn.co/image/ab67616d00001e0286e4243f74d25a88fc5840f9",
        "width" : 300
      }, {
        "height" : 64,
        "url" : "https://i.scdn.co/image/ab67616d0000485186e4243f74d25a88fc5840f9",
        "width" : 64
      } ],
      "name" : "SCENER",
      "release_date" : "2021-02-12",
      "release_date_precision" : "day",
      "total_tracks" : 10,
      "type" : "album",
      "uri" : "spotify:album:3TxfeL4iBnFnzvYQP0O9mH"
    }, {
      "album_type" : "single",
      "artists" : [ {
        "external_urls" : {
          "spotify" : "https://open.spotify.com/artist/4E6900psOaei49vNVKjCs3"
        },
        "href" : "https://api.spotify.com/v1/artists/4E6900psOaei49vNVKjCs3",
        "id" : "4E6900psOaei49vNVKjCs3",
        "name" : "Petra Mases",
        "type" : "artist",
        "uri" : "spotify:artist:4E6900psOaei49vNVKjCs3"
      } ],
      "available_markets" : [ "AD", "AE", "AL", "AR", "AT", "AU", "BA", "BE", "BG", "BH", "BO", "BR", "BY", "CA", "CH", "CL", "CO", "CR", "CY", "CZ", "DE", "DK", "DO", "DZ", "EC", "EE", "EG", "ES", "FI", "FR", "GB", "GR", "GT", "HK", "HN", "HR", "HU", "ID", "IE", "IL", "IN", "IS", "IT", "JO", "JP", "KR", "KW", "KZ", "LB", "LI", "LT", "LU", "LV", "MA", "MC", "MD", "ME", "MK", "MT", "MX", "MY", "NI", "NL", "NO", "NZ", "OM", "PA", "PE", "PH", "PL", "PS", "PT", "PY", "QA", "RO", "RS", "RU", "SA", "SE", "SG", "SI", "SK", "SV", "TH", "TN", "TR", "TW", "UA", "US", "UY", "VN", "XK", "ZA" ],
      "external_urls" : {
        "spotify" : "https://open.spotify.com/album/4zXv2U8bMLg4cpYJnoD0sT"
      },
      "href" : "https://api.spotify.com/v1/albums/4zXv2U8bMLg4cpYJnoD0sT",
      "id" : "4zXv2U8bMLg4cpYJnoD0sT",
      "images" : [ {
        "height" : 640,
        "url" : "https://i.scdn.co/image/ab67616d0000b273e795044f87020dd932dd8ee1",
        "width" : 640
      }, {
        "height" : 300,
        "url" : "https://i.scdn.co/image/ab67616d00001e02e795044f87020dd932dd8ee1",
        "width" : 300
      }, {
        "height" : 64,
        "url" : "https://i.scdn.co/image/ab67616d00004851e795044f87020dd932dd8ee1",
        "width" : 64
      } ],
      "name" : "Marken vid min väg",
      "release_date" : "2021-02-12",
      "release_date_precision" : "day",
      "total_tracks" : 3,
      "type" : "album",
      "uri" : "spotify:album:4zXv2U8bMLg4cpYJnoD0sT"
    }, {
      "album_type" : "album",
      "artists" : [ {
        "external_urls" : {
          "spotify" : "https://open.spotify.com/artist/3r1XkJ7vCs8kHBSzGvPLdP"
        },
        "href" : "https://api.spotify.com/v1/artists/3r1XkJ7vCs8kHBSzGvPLdP",
        "id" : "3r1XkJ7vCs8kHBSzGvPLdP",
        "name" : "slowthai",
        "type" : "artist",
        "uri" : "spotify:artist:3r1XkJ7vCs8kHBSzGvPLdP"
      } ],
      "available_markets" : [ "AD", "AE", "AL", "AR", "AT", "AU", "BA", "BE", "BG", "BH", "BO", "BR", "BY", "CA", "CH", "CL", "CO", "CR", "CY", "CZ", "DE", "DK", "DO", "DZ", "EC", "EE", "EG", "ES", "FI", "FR", "GB", "GR", "GT", "HK", "HN", "HR", "HU", "ID", "IE", "IL", "IN", "IS", "IT", "JO", "JP", "KR", "KW", "KZ", "LB", "LI", "LT", "LU", "LV", "MA", "MC", "MD", "ME", "MK", "MT", "MX", "MY", "NI", "NL", "NO", "NZ", "OM", "PA", "PE", "PH", "PL", "PS", "PT", "PY", "QA", "RO", "RS", "RU", "SA", "SE", "SG", "SI", "SK", "SV", "TH", "TN", "TR", "TW", "UA", "US", "UY", "VN", "XK", "ZA" ],
      "external_urls" : {
        "spotify" : "https://open.spotify.com/album/7qE3WaOVAAIxgH8WtjbBBj"
      },
      "href" : "https://api.spotify.com/v1/albums/7qE3WaOVAAIxgH8WtjbBBj",
      "id" : "7qE3WaOVAAIxgH8WtjbBBj",
      "images" : [ {
        "height" : 640,
        "url" : "https://i.scdn.co/image/ab67616d0000b2736256c5303a98e9aefdf07127",
        "width" : 640
      }, {
        "height" : 300,
        "url" : "https://i.scdn.co/image/ab67616d00001e026256c5303a98e9aefdf07127",
        "width" : 300
      }, {
        "height" : 64,
        "url" : "https://i.scdn.co/image/ab67616d000048516256c5303a98e9aefdf07127",
        "width" : 64
      } ],
      "name" : "TYRON",
      "release_date" : "2021-02-12",
      "release_date_precision" : "day",
      "total_tracks" : 14,
      "type" : "album",
      "uri" : "spotify:album:7qE3WaOVAAIxgH8WtjbBBj"
    }, {
      "album_type" : "album",
      "artists" : [ {
        "external_urls" : {
          "spotify" : "https://open.spotify.com/artist/6UCQYrcJ6wab6gnQ89OJFh"
        },
        "href" : "https://api.spotify.com/v1/artists/6UCQYrcJ6wab6gnQ89OJFh",
        "id" : "6UCQYrcJ6wab6gnQ89OJFh",
        "name" : "Headie One",
        "type" : "artist",
        "uri" : "spotify:artist:6UCQYrcJ6wab6gnQ89OJFh"
      } ],
      "available_markets" : [ "AD", "AE", "AL", "AR", "AT", "AU", "BA", "BE", "BG", "BH", "BO", "BR", "BY", "CA", "CH", "CL", "CO", "CR", "CY", "CZ", "DE", "DK", "DO", "DZ", "EC", "EE", "EG", "ES", "FI", "FR", "GB", "GR", "GT", "HK", "HN", "HR", "HU", "ID", "IE", "IL", "IN", "IS", "IT", "JO", "JP", "KR", "KW", "KZ", "LB", "LI", "LT", "LU", "LV", "MA", "MC", "MD", "ME", "MK", "MT", "MX", "MY", "NI", "NL", "NO", "NZ", "OM", "PA", "PE", "PH", "PL", "PS", "PT", "PY", "QA", "RO", "RS", "RU", "SA", "SE", "SG", "SI", "SK", "SV", "TH", "TN", "TR", "TW", "UA", "US", "UY", "VN", "XK", "ZA" ],
      "external_urls" : {
        "spotify" : "https://open.spotify.com/album/4KxJRAHWvrJSIeftGB9PHP"
      },
      "href" : "https://api.spotify.com/v1/albums/4KxJRAHWvrJSIeftGB9PHP",
      "id" : "4KxJRAHWvrJSIeftGB9PHP",
      "images" : [ {
        "height" : 640,
        "url" : "https://i.scdn.co/image/ab67616d0000b273b13abb0de2f4107d6173330f",
        "width" : 640
      }, {
        "height" : 300,
        "url" : "https://i.scdn.co/image/ab67616d00001e02b13abb0de2f4107d6173330f",
        "width" : 300
      }, {
        "height" : 64,
        "url" : "https://i.scdn.co/image/ab67616d00004851b13abb0de2f4107d6173330f",
        "width" : 64
      } ],
      "name" : "EDNA (Deluxe)",
      "release_date" : "2021-02-12",
      "release_date_precision" : "day",
      "total_tracks" : 28,
      "type" : "album",
      "uri" : "spotify:album:4KxJRAHWvrJSIeftGB9PHP"
    }, {
      "album_type" : "single",
      "artists" : [ {
        "external_urls" : {
          "spotify" : "https://open.spotify.com/artist/6M3rUPqXzEcBsKFl0f9q8c"
        },
        "href" : "https://api.spotify.com/v1/artists/6M3rUPqXzEcBsKFl0f9q8c",
        "id" : "6M3rUPqXzEcBsKFl0f9q8c",
        "name" : "Lance & Linton",
        "type" : "artist",
        "uri" : "spotify:artist:6M3rUPqXzEcBsKFl0f9q8c"
      } ],
      "available_markets" : [ "AD", "AE", "AL", "AR", "AT", "AU", "BA", "BE", "BG", "BH", "BO", "BR", "BY", "CA", "CH", "CL", "CO", "CR", "CY", "CZ", "DE", "DK", "DO", "DZ", "EC", "EE", "EG", "ES", "FI", "FR", "GB", "GR", "GT", "HK", "HN", "HR", "HU", "ID", "IE", "IL", "IN", "IS", "IT", "JO", "JP", "KR", "KW", "KZ", "LB", "LI", "LT", "LU", "LV", "MA", "MC", "MD", "ME", "MK", "MT", "MX", "MY", "NI", "NL", "NO", "NZ", "OM", "PA", "PE", "PH", "PL", "PS", "PT", "PY", "QA", "RO", "RS", "RU", "SA", "SE", "SG", "SI", "SK", "SV", "TH", "TN", "TR", "TW", "UA", "US", "UY", "VN", "XK", "ZA" ],
      "external_urls" : {
        "spotify" : "https://open.spotify.com/album/7BcuhifD9uKb3aFVQsb0wt"
      },
      "href" : "https://api.spotify.com/v1/albums/7BcuhifD9uKb3aFVQsb0wt",
      "id" : "7BcuhifD9uKb3aFVQsb0wt",
      "images" : [ {
        "height" : 640,
        "url" : "https://i.scdn.co/image/ab67616d0000b27388be41fc3588192986839688",
        "width" : 640
      }, {
        "height" : 300,
        "url" : "https://i.scdn.co/image/ab67616d00001e0288be41fc3588192986839688",
        "width" : 300
      }, {
        "height" : 64,
        "url" : "https://i.scdn.co/image/ab67616d0000485188be41fc3588192986839688",
        "width" : 64
      } ],
      "name" : "I'm Alive",
      "release_date" : "2021-02-12",
      "release_date_precision" : "day",
      "total_tracks" : 1,
      "type" : "album",
      "uri" : "spotify:album:7BcuhifD9uKb3aFVQsb0wt"
    }, {
      "album_type" : "album",
      "artists" : [ {
        "external_urls" : {
          "spotify" : "https://open.spotify.com/artist/33eHnoVi12zOWe8MdqRYsR"
        },
        "href" : "https://api.spotify.com/v1/artists/33eHnoVi12zOWe8MdqRYsR",
        "id" : "33eHnoVi12zOWe8MdqRYsR",
        "name" : "Judas and the Black Messiah",
        "type" : "artist",
        "uri" : "spotify:artist:33eHnoVi12zOWe8MdqRYsR"
      } ],
      "available_markets" : [ "AD", "AE", "AL", "AR", "AT", "AU", "BA", "BE", "BG", "BH", "BO", "BR", "BY", "CA", "CH", "CL", "CO", "CR", "CY", "CZ", "DE", "DK", "DO", "DZ", "EC", "EE", "EG", "ES", "FI", "FR", "GB", "GR", "GT", "HK", "HN", "HR", "HU", "ID", "IE", "IL", "IN", "IS", "IT", "JO", "JP", "KR", "KW", "KZ", "LB", "LI", "LT", "LU", "LV", "MA", "MC", "MD", "ME", "MK", "MT", "MX", "MY", "NI", "NL", "NO", "NZ", "OM", "PA", "PE", "PH", "PL", "PS", "PT", "PY", "QA", "RO", "RS", "RU", "SA", "SE", "SG", "SI", "SK", "SV", "TH", "TN", "TR", "TW", "UA", "US", "UY", "VN", "XK", "ZA" ],
      "external_urls" : {
        "spotify" : "https://open.spotify.com/album/0f0XZWfp7I1awuU40IPGGz"
      },
      "href" : "https://api.spotify.com/v1/albums/0f0XZWfp7I1awuU40IPGGz",
      "id" : "0f0XZWfp7I1awuU40IPGGz",
      "images" : [ {
        "height" : 640,
        "url" : "https://i.scdn.co/image/ab67616d0000b273b02a3380a69bd2418a1f68f1",
        "width" : 640
      }, {
        "height" : 300,
        "url" : "https://i.scdn.co/image/ab67616d00001e02b02a3380a69bd2418a1f68f1",
        "width" : 300
      }, {
        "height" : 64,
        "url" : "https://i.scdn.co/image/ab67616d00004851b02a3380a69bd2418a1f68f1",
        "width" : 64
      } ],
      "name" : "The Inspired Album",
      "release_date" : "2021-02-12",
      "release_date_precision" : "day",
      "total_tracks" : 22,
      "type" : "album",
      "uri" : "spotify:album:0f0XZWfp7I1awuU40IPGGz"
    }, {
      "album_type" : "single",
      "artists" : [ {
        "external_urls" : {
          "spotify" : "https://open.spotify.com/artist/0qUCR9pTeRAxEQO1Kcqjqp"
        },
        "href" : "https://api.spotify.com/v1/artists/0qUCR9pTeRAxEQO1Kcqjqp",
        "id" : "0qUCR9pTeRAxEQO1Kcqjqp",
        "name" : "Hampus Nessvold",
        "type" : "artist",
        "uri" : "spotify:artist:0qUCR9pTeRAxEQO1Kcqjqp"
      }, {
        "external_urls" : {
          "spotify" : "https://open.spotify.com/artist/0tOdy7SqogILIjzGU2hSr5"
        },
        "href" : "https://api.spotify.com/v1/artists/0tOdy7SqogILIjzGU2hSr5",
        "id" : "0tOdy7SqogILIjzGU2hSr5",
        "name" : "Melissa Horn",
        "type" : "artist",
        "uri" : "spotify:artist:0tOdy7SqogILIjzGU2hSr5"
      } ],
      "available_markets" : [ "AD", "AE", "AL", "AR", "AT", "AU", "BA", "BE", "BG", "BH", "BO", "BR", "BY", "CA", "CH", "CL", "CO", "CR", "CY", "CZ", "DE", "DK", "DO", "DZ", "EC", "EE", "EG", "ES", "FI", "FR", "GB", "GR", "GT", "HK", "HN", "HR", "HU", "ID", "IE", "IL", "IN", "IS", "IT", "JO", "JP", "KR", "KW", "KZ", "LB", "LI", "LT", "LU", "LV", "MA", "MC", "MD", "ME", "MK", "MT", "MX", "MY", "NI", "NL", "NO", "NZ", "OM", "PA", "PE", "PH", "PL", "PS", "PT", "PY", "QA", "RO", "RS", "RU", "SA", "SE", "SG", "SI", "SK", "SV", "TH", "TN", "TR", "TW", "UA", "US", "UY", "VN", "XK", "ZA" ],
      "external_urls" : {
        "spotify" : "https://open.spotify.com/album/6eY2tDAztgSGo3dV4bT8Sd"
      },
      "href" : "https://api.spotify.com/v1/albums/6eY2tDAztgSGo3dV4bT8Sd",
      "id" : "6eY2tDAztgSGo3dV4bT8Sd",
      "images" : [ {
        "height" : 640,
        "url" : "https://i.scdn.co/image/ab67616d0000b273f8459168d07b985220383bb8",
        "width" : 640
      }, {
        "height" : 300,
        "url" : "https://i.scdn.co/image/ab67616d00001e02f8459168d07b985220383bb8",
        "width" : 300
      }, {
        "height" : 64,
        "url" : "https://i.scdn.co/image/ab67616d00004851f8459168d07b985220383bb8",
        "width" : 64
      } ],
      "name" : "Om du fanns",
      "release_date" : "2021-02-12",
      "release_date_precision" : "day",
      "total_tracks" : 1,
      "type" : "album",
      "uri" : "spotify:album:6eY2tDAztgSGo3dV4bT8Sd"
    }, {
      "album_type" : "single",
      "artists" : [ {
        "external_urls" : {
          "spotify" : "https://open.spotify.com/artist/30j6YCWLSp59jLF7yIYZWq"
        },
        "href" : "https://api.spotify.com/v1/artists/30j6YCWLSp59jLF7yIYZWq",
        "id" : "30j6YCWLSp59jLF7yIYZWq",
        "name" : "Magnus Uggla",
        "type" : "artist",
        "uri" : "spotify:artist:30j6YCWLSp59jLF7yIYZWq"
      } ],
      "available_markets" : [ "AD", "AE", "AL", "AR", "AT", "AU", "BA", "BE", "BG", "BH", "BO", "BR", "BY", "CA", "CH", "CL", "CO", "CR", "CY", "CZ", "DE", "DK", "DO", "DZ", "EC", "EE", "EG", "ES", "FI", "FR", "GB", "GR", "GT", "HK", "HN", "HR", "HU", "ID", "IE", "IL", "IN", "IS", "IT", "JO", "JP", "KR", "KW", "KZ", "LB", "LI", "LT", "LU", "LV", "MA", "MC", "MD", "ME", "MK", "MT", "MX", "MY", "NI", "NL", "NO", "NZ", "OM", "PA", "PE", "PH", "PL", "PS", "PT", "PY", "QA", "RO", "RS", "RU", "SA", "SE", "SG", "SI", "SK", "SV", "TH", "TN", "TR", "TW", "UA", "US", "UY", "VN", "XK", "ZA" ],
      "external_urls" : {
        "spotify" : "https://open.spotify.com/album/2mr54C3AviPwmbZAUytRC2"
      },
      "href" : "https://api.spotify.com/v1/albums/2mr54C3AviPwmbZAUytRC2",
      "id" : "2mr54C3AviPwmbZAUytRC2",
      "images" : [ {
        "height" : 640,
        "url" : "https://i.scdn.co/image/ab67616d0000b273d2e128f2d7e2f345838d5a40",
        "width" : 640
      }, {
        "height" : 300,
        "url" : "https://i.scdn.co/image/ab67616d00001e02d2e128f2d7e2f345838d5a40",
        "width" : 300
      }, {
        "height" : 64,
        "url" : "https://i.scdn.co/image/ab67616d00004851d2e128f2d7e2f345838d5a40",
        "width" : 64
      } ],
      "name" : "Johnny The Rucker (Remode)",
      "release_date" : "2021-02-12",
      "release_date_precision" : "day",
      "total_tracks" : 1,
      "type" : "album",
      "uri" : "spotify:album:2mr54C3AviPwmbZAUytRC2"
    }, {
      "album_type" : "single",
      "artists" : [ {
        "external_urls" : {
          "spotify" : "https://open.spotify.com/artist/2PlHciJMEDaarjew8FmTsf"
        },
        "href" : "https://api.spotify.com/v1/artists/2PlHciJMEDaarjew8FmTsf",
        "id" : "2PlHciJMEDaarjew8FmTsf",
        "name" : "Hemliga Klubben",
        "type" : "artist",
        "uri" : "spotify:artist:2PlHciJMEDaarjew8FmTsf"
      } ],
      "available_markets" : [ "AD", "AE", "AL", "AR", "AT", "AU", "BA", "BE", "BG", "BH", "BO", "BR", "BY", "CA", "CH", "CL", "CO", "CR", "CY", "CZ", "DE", "DK", "DO", "DZ", "EC", "EE", "EG", "ES", "FI", "FR", "GB", "GR", "GT", "HK", "HN", "HR", "HU", "ID", "IE", "IL", "IN", "IS", "IT", "JO", "JP", "KR", "KW", "KZ", "LB", "LI", "LT", "LU", "LV", "MA", "MC", "MD", "ME", "MK", "MT", "MX", "MY", "NI", "NL", "NO", "NZ", "OM", "PA", "PE", "PH", "PL", "PS", "PT", "PY", "QA", "RO", "RS", "RU", "SA", "SE", "SG", "SI", "SK", "SV", "TH", "TN", "TR", "TW", "UA", "US", "UY", "VN", "XK", "ZA" ],
      "external_urls" : {
        "spotify" : "https://open.spotify.com/album/0dLRaAobyrVjODrtcX4b0h"
      },
      "href" : "https://api.spotify.com/v1/albums/0dLRaAobyrVjODrtcX4b0h",
      "id" : "0dLRaAobyrVjODrtcX4b0h",
      "images" : [ {
        "height" : 640,
        "url" : "https://i.scdn.co/image/ab67616d0000b2732804052a761750557d43bbb6",
        "width" : 640
      }, {
        "height" : 300,
        "url" : "https://i.scdn.co/image/ab67616d00001e022804052a761750557d43bbb6",
        "width" : 300
      }, {
        "height" : 64,
        "url" : "https://i.scdn.co/image/ab67616d000048512804052a761750557d43bbb6",
        "width" : 64
      } ],
      "name" : "Mer som du",
      "release_date" : "2021-02-12",
      "release_date_precision" : "day",
      "total_tracks" : 1,
      "type" : "album",
      "uri" : "spotify:album:0dLRaAobyrVjODrtcX4b0h"
    }, {
      "album_type" : "single",
      "artists" : [ {
        "external_urls" : {
          "spotify" : "https://open.spotify.com/artist/2Dor6diK1zw9BEluKBOdoA"
        },
        "href" : "https://api.spotify.com/v1/artists/2Dor6diK1zw9BEluKBOdoA",
        "id" : "2Dor6diK1zw9BEluKBOdoA",
        "name" : "23",
        "type" : "artist",
        "uri" : "spotify:artist:2Dor6diK1zw9BEluKBOdoA"
      } ],
      "available_markets" : [ "AD", "AE", "AL", "AR", "AT", "AU", "BA", "BE", "BG", "BH", "BO", "BR", "BY", "CA", "CH", "CL", "CO", "CR", "CY", "CZ", "DE", "DK", "DO", "DZ", "EC", "EE", "EG", "ES", "FI", "FR", "GB", "GR", "GT", "HK", "HN", "HR", "HU", "ID", "IE", "IL", "IN", "IS", "IT", "JO", "JP", "KR", "KW", "KZ", "LB", "LI", "LT", "LU", "LV", "MA", "MC", "MD", "ME", "MK", "MT", "MX", "MY", "NI", "NL", "NO", "NZ", "OM", "PA", "PE", "PH", "PL", "PS", "PT", "PY", "QA", "RO", "RS", "RU", "SA", "SE", "SG", "SI", "SK", "SV", "TH", "TN", "TR", "TW", "UA", "US", "UY", "VN", "XK", "ZA" ],
      "external_urls" : {
        "spotify" : "https://open.spotify.com/album/6rlXf60coywagsNeHQEsoC"
      },
      "href" : "https://api.spotify.com/v1/albums/6rlXf60coywagsNeHQEsoC",
      "id" : "6rlXf60coywagsNeHQEsoC",
      "images" : [ {
        "height" : 640,
        "url" : "https://i.scdn.co/image/ab67616d0000b27340b56e507949b1251e54b183",
        "width" : 640
      }, {
        "height" : 300,
        "url" : "https://i.scdn.co/image/ab67616d00001e0240b56e507949b1251e54b183",
        "width" : 300
      }, {
        "height" : 64,
        "url" : "https://i.scdn.co/image/ab67616d0000485140b56e507949b1251e54b183",
        "width" : 64
      } ],
      "name" : "200 Zips",
      "release_date" : "2021-02-06",
      "release_date_precision" : "day",
      "total_tracks" : 1,
      "type" : "album",
      "uri" : "spotify:album:6rlXf60coywagsNeHQEsoC"
    }, {
      "album_type" : "album",
      "artists" : [ {
        "external_urls" : {
          "spotify" : "https://open.spotify.com/artist/5Vuvs6Py2JRU7WiFDVsI7J"
        },
        "href" : "https://api.spotify.com/v1/artists/5Vuvs6Py2JRU7WiFDVsI7J",
        "id" : "5Vuvs6Py2JRU7WiFDVsI7J",
        "name" : "Lucky Daye",
        "type" : "artist",
        "uri" : "spotify:artist:5Vuvs6Py2JRU7WiFDVsI7J"
      } ],
      "available_markets" : [ "AD", "AE", "AL", "AR", "AT", "AU", "BA", "BE", "BG", "BH", "BO", "BR", "BY", "CA", "CH", "CL", "CO", "CR", "CY", "CZ", "DE", "DK", "DO", "DZ", "EC", "EE", "EG", "ES", "FI", "FR", "GB", "GR", "GT", "HK", "HN", "HR", "HU", "ID", "IE", "IL", "IN", "IS", "IT", "JO", "JP", "KR", "KW", "KZ", "LB", "LI", "LT", "LU", "LV", "MA", "MC", "MD", "ME", "MK", "MT", "MX", "MY", "NI", "NL", "NO", "NZ", "OM", "PA", "PE", "PH", "PL", "PS", "PT", "PY", "QA", "RO", "RS", "RU", "SA", "SE", "SG", "SI", "SK", "SV", "TH", "TN", "TR", "TW", "UA", "US", "UY", "VN", "XK", "ZA" ],
      "external_urls" : {
        "spotify" : "https://open.spotify.com/album/0OPKA9Mrv6JFrTjC0KpvdT"
      },
      "href" : "https://api.spotify.com/v1/albums/0OPKA9Mrv6JFrTjC0KpvdT",
      "id" : "0OPKA9Mrv6JFrTjC0KpvdT",
      "images" : [ {
        "height" : 640,
        "url" : "https://i.scdn.co/image/ab67616d0000b2731448c3a92e28193fcff2f32f",
        "width" : 640
      }, {
        "height" : 300,
        "url" : "https://i.scdn.co/image/ab67616d00001e021448c3a92e28193fcff2f32f",
        "width" : 300
      }, {
        "height" : 64,
        "url" : "https://i.scdn.co/image/ab67616d000048511448c3a92e28193fcff2f32f",
        "width" : 64
      } ],
      "name" : "Table For Two",
      "release_date" : "2021-02-12",
      "release_date_precision" : "day",
      "total_tracks" : 7,
      "type" : "album",
      "uri" : "spotify:album:0OPKA9Mrv6JFrTjC0KpvdT"
    }, {
      "album_type" : "single",
      "artists" : [ {
        "external_urls" : {
          "spotify" : "https://open.spotify.com/artist/2Mp409M6EpFr3kGdQ1mwjS"
        },
        "href" : "https://api.spotify.com/v1/artists/2Mp409M6EpFr3kGdQ1mwjS",
        "id" : "2Mp409M6EpFr3kGdQ1mwjS",
        "name" : "Sabina Ddumba",
        "type" : "artist",
        "uri" : "spotify:artist:2Mp409M6EpFr3kGdQ1mwjS"
      } ],
      "available_markets" : [ "AD", "AE", "AL", "AR", "AT", "AU", "BA", "BE", "BG", "BH", "BO", "BR", "BY", "CA", "CH", "CL", "CO", "CR", "CY", "CZ", "DE", "DK", "DO", "DZ", "EC", "EE", "EG", "ES", "FI", "FR", "GB", "GR", "GT", "HK", "HN", "HR", "HU", "ID", "IE", "IL", "IN", "IS", "IT", "JO", "JP", "KR", "KW", "KZ", "LB", "LI", "LT", "LU", "LV", "MA", "MC", "MD", "ME", "MK", "MT", "MX", "MY", "NI", "NL", "NO", "NZ", "OM", "PA", "PE", "PH", "PL", "PS", "PT", "PY", "QA", "RO", "RS", "RU", "SA", "SE", "SG", "SI", "SK", "SV", "TH", "TN", "TR", "TW", "UA", "US", "UY", "VN", "XK", "ZA" ],
      "external_urls" : {
        "spotify" : "https://open.spotify.com/album/2u0qnHlPvas9EK1zziHkQG"
      },
      "href" : "https://api.spotify.com/v1/albums/2u0qnHlPvas9EK1zziHkQG",
      "id" : "2u0qnHlPvas9EK1zziHkQG",
      "images" : [ {
        "height" : 640,
        "url" : "https://i.scdn.co/image/ab67616d0000b273ba4385973c83ea336ed55159",
        "width" : 640
      }, {
        "height" : 300,
        "url" : "https://i.scdn.co/image/ab67616d00001e02ba4385973c83ea336ed55159",
        "width" : 300
      }, {
        "height" : 64,
        "url" : "https://i.scdn.co/image/ab67616d00004851ba4385973c83ea336ed55159",
        "width" : 64
      } ],
      "name" : "Jag vill ha",
      "release_date" : "2021-02-10",
      "release_date_precision" : "day",
      "total_tracks" : 1,
      "type" : "album",
      "uri" : "spotify:album:2u0qnHlPvas9EK1zziHkQG"
    }, {
      "album_type" : "single",
      "artists" : [ {
        "external_urls" : {
          "spotify" : "https://open.spotify.com/artist/3jk39CGeaaSO3FPKNx1RUx"
        },
        "href" : "https://api.spotify.com/v1/artists/3jk39CGeaaSO3FPKNx1RUx",
        "id" : "3jk39CGeaaSO3FPKNx1RUx",
        "name" : "Syd",
        "type" : "artist",
        "uri" : "spotify:artist:3jk39CGeaaSO3FPKNx1RUx"
      } ],
      "available_markets" : [ "AD", "AE", "AL", "AR", "AT", "AU", "BA", "BE", "BG", "BH", "BO", "BR", "BY", "CA", "CH", "CL", "CO", "CR", "CY", "CZ", "DE", "DK", "DO", "DZ", "EC", "EE", "EG", "ES", "FI", "FR", "GB", "GR", "GT", "HK", "HN", "HR", "HU", "ID", "IE", "IL", "IN", "IS", "IT", "JO", "JP", "KR", "KW", "KZ", "LB", "LI", "LT", "LU", "LV", "MA", "MC", "MD", "ME", "MK", "MT", "MX", "MY", "NI", "NL", "NO", "NZ", "OM", "PA", "PE", "PH", "PL", "PS", "PT", "PY", "QA", "RO", "RS", "RU", "SA", "SE", "SG", "SI", "SK", "SV", "TH", "TN", "TR", "TW", "UA", "US", "UY", "VN", "XK", "ZA" ],
      "external_urls" : {
        "spotify" : "https://open.spotify.com/album/1WteYNWIkmmgTfquwV0Mc4"
      },
      "href" : "https://api.spotify.com/v1/albums/1WteYNWIkmmgTfquwV0Mc4",
      "id" : "1WteYNWIkmmgTfquwV0Mc4",
      "images" : [ {
        "height" : 640,
        "url" : "https://i.scdn.co/image/ab67616d0000b2735c5273c6e3a46bb042148f70",
        "width" : 640
      }, {
        "height" : 300,
        "url" : "https://i.scdn.co/image/ab67616d00001e025c5273c6e3a46bb042148f70",
        "width" : 300
      }, {
        "height" : 64,
        "url" : "https://i.scdn.co/image/ab67616d000048515c5273c6e3a46bb042148f70",
        "width" : 64
      } ],
      "name" : "Missing Out",
      "release_date" : "2021-02-12",
      "release_date_precision" : "day",
      "total_tracks" : 1,
      "type" : "album",
      "uri" : "spotify:album:1WteYNWIkmmgTfquwV0Mc4"
    }, {
      "album_type" : "single",
      "artists" : [ {
        "external_urls" : {
          "spotify" : "https://open.spotify.com/artist/0RNweHFk8drHYKryYRpeB3"
        },
        "href" : "https://api.spotify.com/v1/artists/0RNweHFk8drHYKryYRpeB3",
        "id" : "0RNweHFk8drHYKryYRpeB3",
        "name" : "Modo Banja",
        "type" : "artist",
        "uri" : "spotify:artist:0RNweHFk8drHYKryYRpeB3"
      }, {
        "external_urls" : {
          "spotify" : "https://open.spotify.com/artist/0LdzDrRc2RESpGqwyhbE3t"
        },
        "href" : "https://api.spotify.com/v1/artists/0LdzDrRc2RESpGqwyhbE3t",
        "id" : "0LdzDrRc2RESpGqwyhbE3t",
        "name" : "Madi Banja",
        "type" : "artist",
        "uri" : "spotify:artist:0LdzDrRc2RESpGqwyhbE3t"
      } ],
      "available_markets" : [ "AD", "AE", "AL", "AR", "AT", "AU", "BA", "BE", "BG", "BH", "BO", "BR", "BY", "CA", "CH", "CL", "CO", "CR", "CY", "CZ", "DE", "DK", "DO", "DZ", "EC", "EE", "EG", "ES", "FI", "FR", "GB", "GR", "GT", "HK", "HN", "HR", "HU", "ID", "IE", "IL", "IN", "IS", "IT", "JO", "JP", "KR", "KW", "KZ", "LB", "LI", "LT", "LU", "LV", "MA", "MC", "MD", "ME", "MK", "MT", "MX", "MY", "NI", "NL", "NO", "NZ", "OM", "PA", "PE", "PH", "PL", "PS", "PT", "PY", "QA", "RO", "RS", "RU", "SA", "SE", "SG", "SI", "SK", "SV", "TH", "TN", "TR", "TW", "UA", "US", "UY", "VN", "XK", "ZA" ],
      "external_urls" : {
        "spotify" : "https://open.spotify.com/album/1MSgPGReV8SGMLbMt6uMOA"
      },
      "href" : "https://api.spotify.com/v1/albums/1MSgPGReV8SGMLbMt6uMOA",
      "id" : "1MSgPGReV8SGMLbMt6uMOA",
      "images" : [ {
        "height" : 640,
        "url" : "https://i.scdn.co/image/ab67616d0000b273a64ffa33abbd9b208a44cc9f",
        "width" : 640
      }, {
        "height" : 300,
        "url" : "https://i.scdn.co/image/ab67616d00001e02a64ffa33abbd9b208a44cc9f",
        "width" : 300
      }, {
        "height" : 64,
        "url" : "https://i.scdn.co/image/ab67616d00004851a64ffa33abbd9b208a44cc9f",
        "width" : 64
      } ],
      "name" : "Hello",
      "release_date" : "2021-02-12",
      "release_date_precision" : "day",
      "total_tracks" : 1,
      "type" : "album",
      "uri" : "spotify:album:1MSgPGReV8SGMLbMt6uMOA"
    }, {
      "album_type" : "single",
      "artists" : [ {
        "external_urls" : {
          "spotify" : "https://open.spotify.com/artist/6jGMq4yGs7aQzuGsMgVgZR"
        },
        "href" : "https://api.spotify.com/v1/artists/6jGMq4yGs7aQzuGsMgVgZR",
        "id" : "6jGMq4yGs7aQzuGsMgVgZR",
        "name" : "Lil Tjay",
        "type" : "artist",
        "uri" : "spotify:artist:6jGMq4yGs7aQzuGsMgVgZR"
      }, {
        "external_urls" : {
          "spotify" : "https://open.spotify.com/artist/4IVAbR2w4JJNJDDRFP3E83"
        },
        "href" : "https://api.spotify.com/v1/artists/4IVAbR2w4JJNJDDRFP3E83",
        "id" : "4IVAbR2w4JJNJDDRFP3E83",
        "name" : "6LACK",
        "type" : "artist",
        "uri" : "spotify:artist:4IVAbR2w4JJNJDDRFP3E83"
      } ],
      "available_markets" : [ "AD", "AE", "AL", "AR", "AT", "AU", "BA", "BE", "BG", "BH", "BO", "BR", "BY", "CA", "CH", "CL", "CO", "CR", "CY", "CZ", "DE", "DK", "DO", "DZ", "EC", "EE", "EG", "ES", "FI", "FR", "GB", "GR", "GT", "HK", "HN", "HR", "HU", "ID", "IE", "IL", "IN", "IS", "IT", "JO", "JP", "KR", "KW", "KZ", "LB", "LI", "LT", "LU", "LV", "MA", "MC", "MD", "ME", "MK", "MT", "MX", "MY", "NI", "NL", "NO", "NZ", "OM", "PA", "PE", "PH", "PL", "PS", "PT", "PY", "QA", "RO", "RS", "RU", "SA", "SE", "SG", "SI", "SK", "SV", "TH", "TN", "TR", "TW", "UA", "US", "UY", "VN", "XK", "ZA" ],
      "external_urls" : {
        "spotify" : "https://open.spotify.com/album/1QhKOq11hGEoNA42rV2IHp"
      },
      "href" : "https://api.spotify.com/v1/albums/1QhKOq11hGEoNA42rV2IHp",
      "id" : "1QhKOq11hGEoNA42rV2IHp",
      "images" : [ {
        "height" : 640,
        "url" : "https://i.scdn.co/image/ab67616d0000b2731b36f91abf80aedb7c88f460",
        "width" : 640
      }, {
        "height" : 300,
        "url" : "https://i.scdn.co/image/ab67616d00001e021b36f91abf80aedb7c88f460",
        "width" : 300
      }, {
        "height" : 64,
        "url" : "https://i.scdn.co/image/ab67616d000048511b36f91abf80aedb7c88f460",
        "width" : 64
      } ],
      "name" : "Calling My Phone",
      "release_date" : "2021-02-12",
      "release_date_precision" : "day",
      "total_tracks" : 1,
      "type" : "album",
      "uri" : "spotify:album:1QhKOq11hGEoNA42rV2IHp"
    }, {
      "album_type" : "single",
      "artists" : [ {
        "external_urls" : {
          "spotify" : "https://open.spotify.com/artist/2PXGoeN12YqSbK0fCpSPPl"
        },
        "href" : "https://api.spotify.com/v1/artists/2PXGoeN12YqSbK0fCpSPPl",
        "id" : "2PXGoeN12YqSbK0fCpSPPl",
        "name" : "Jazlin",
        "type" : "artist",
        "uri" : "spotify:artist:2PXGoeN12YqSbK0fCpSPPl"
      }, {
        "external_urls" : {
          "spotify" : "https://open.spotify.com/artist/62oPQvptWCPp2UCsqYwcIf"
        },
        "href" : "https://api.spotify.com/v1/artists/62oPQvptWCPp2UCsqYwcIf",
        "id" : "62oPQvptWCPp2UCsqYwcIf",
        "name" : "L1NA",
        "type" : "artist",
        "uri" : "spotify:artist:62oPQvptWCPp2UCsqYwcIf"
      } ],
      "available_markets" : [ "AD", "AE", "AL", "AR", "AT", "AU", "BA", "BE", "BG", "BH", "BO", "BR", "BY", "CA", "CH", "CL", "CO", "CR", "CY", "CZ", "DE", "DK", "DO", "DZ", "EC", "EE", "EG", "ES", "FI", "FR", "GB", "GR", "GT", "HK", "HN", "HR", "HU", "ID", "IE", "IL", "IN", "IS", "IT", "JO", "JP", "KR", "KW", "KZ", "LB", "LI", "LT", "LU", "LV", "MA", "MC", "MD", "ME", "MK", "MT", "MX", "MY", "NI", "NL", "NO", "NZ", "OM", "PA", "PE", "PH", "PL", "PS", "PT", "PY", "QA", "RO", "RS", "RU", "SA", "SE", "SG", "SI", "SK", "SV", "TH", "TN", "TR", "TW", "UA", "US", "UY", "VN", "XK", "ZA" ],
      "external_urls" : {
        "spotify" : "https://open.spotify.com/album/6sX7ysUOfIFLYgTyjDXPT4"
      },
      "href" : "https://api.spotify.com/v1/albums/6sX7ysUOfIFLYgTyjDXPT4",
      "id" : "6sX7ysUOfIFLYgTyjDXPT4",
      "images" : [ {
        "height" : 640,
        "url" : "https://i.scdn.co/image/ab67616d0000b2738188ba0fc64b1c020ef627ca",
        "width" : 640
      }, {
        "height" : 300,
        "url" : "https://i.scdn.co/image/ab67616d00001e028188ba0fc64b1c020ef627ca",
        "width" : 300
      }, {
        "height" : 64,
        "url" : "https://i.scdn.co/image/ab67616d000048518188ba0fc64b1c020ef627ca",
        "width" : 64
      } ],
      "name" : "PAIN",
      "release_date" : "2021-02-12",
      "release_date_precision" : "day",
      "total_tracks" : 1,
      "type" : "album",
      "uri" : "spotify:album:6sX7ysUOfIFLYgTyjDXPT4"
    } ],
    "limit" : 20,
    "next" : "https://api.spotify.com/v1/browse/new-releases?country=SE&offset=20&limit=20",
    "offset" : 0,
    "previous" : null,
    "total" : 100
  }
}